Group 13 Perception of AI Decision Making
…
# Count how many observations in each category
data %>%
  count(G13_RiskGroup)

# Filter out Unknowns and select relevant columns
G13_sorted <- data %>%
  filter(G13_RiskGroup != "Unknown") %>%
  arrange(G13_RiskGroup) %>%
  select(G13_RiskGroup, Group13_AITrust_DO, G13_DV, G13_DV_Likert)

# View the result
print(G13_sorted)

# A tibble: 279 × 4
   G13_RiskGroup Group13_AITrust_DO              G13_DV            G13_DV_Likert
   <chr>         <chr>                           <chr>                     <dbl>
 1 HighRisk_1    G13-Timer|G13_HighRisk_1|G13_DV Human assisted b…             2
 2 HighRisk_1    G13-Timer|G13_HighRisk_1|G13_DV Human assisted b…             2
 3 HighRisk_1    G13-Timer|G13_HighRisk_1|G13_DV Human assisted b…             2
 4 HighRisk_1    G13-Timer|G13_HighRisk_1|G13_DV Human alone                   1
 5 HighRisk_1    G13-Timer|G13_HighRisk_1|G13_DV Human assisted b…             2
 6 HighRisk_1    G13-Timer|G13_HighRisk_1|G13_DV Collaboration be…             3
 7 HighRisk_1    G13-Timer|G13_HighRisk_1|G13_DV Human assisted b…             2
 8 HighRisk_1    G13-Timer|G13_HighRisk_1|G13_DV Human alone                   1
 9 HighRisk_1    G13-Timer|G13_HighRisk_1|G13_DV Human assisted b…             2
10 HighRisk_1    G13-Timer|G13_HighRisk_1|G13_DV Human alone                   1
# ℹ 269 more rows
…
